%YAML 1.1
%TAG !u! tag:unity3d.com,2011:
--- !u!114 &11400000
MonoBehaviour:
  m_ObjectHideFlags: 0
  m_CorrespondingSourceObject: {fileID: 0}
  m_PrefabInstance: {fileID: 0}
  m_PrefabAsset: {fileID: 0}
  m_GameObject: {fileID: 0}
  m_Enabled: 1
  m_EditorHideFlags: 0
  m_Script: {fileID: 11500000, guid: 3bcc645fd37dd6045b9c1bb30d83c117, type: 3}
  m_Name: Demon_Hellfire
  m_EditorClassIdentifier: 
  _enemyID: 7
  _enemySprite: {fileID: 21300000, guid: 5a5351a7f699288429dcf6733fae8a8a, type: 3}
  _enemyMaxHealth: 40
  _enemyDamage: 15
  _enemyAccuracy: 85
  _pointGiven: 15
